Logic_IHM07M1.c:26:13:Update_sync	4	static
Logic_IHM07M1.c:31:13:work_time_ms	4	static
Logic_IHM07M1.c:38:13:Init_Logic	16	static
Logic_IHM07M1.c:58:6:Main_Init	8	static
Logic_IHM07M1.c:84:9:Get_Status_Trigger	4	static
Logic_IHM07M1.c:90:6:Reset_Trigger	4	static
Logic_IHM07M1.c:96:13:Analog_read	16	static
Logic_IHM07M1.c:113:13:Fast_Loop	8	static
Logic_IHM07M1.c:118:13:Middle_Loop	4	static
Logic_IHM07M1.c:130:6:IHM07M1_Sync	8	static
Logic_IHM07M1.c:140:6:RS485_Command_Update_Async	4	static
