ADC_DMA_regular.c:24:6:ADC_DMA_SetCallBack	16	static
ADC_DMA_regular.c:32:6:ADC_DMA_Init	8	static
ADC_DMA_regular.c:41:6:ADC_DMA_Event	24	static
ADC_DMA_regular.c:47:6:ADC_Reserve_DMA_SetCallBack	16	static
ADC_DMA_regular.c:54:6:ADC_Reserve_DMA_Init	8	static
