core_cm4.h:1688:22:__NVIC_EnableIRQ	16	static
core_cm4.h:1724:22:__NVIC_DisableIRQ	16	static,ignoring_inline_asm
IMU_Logic.c:49:6:TIM6_DAC1_IRQHandler	8	static
IMU_Logic.c:60:6:TIM7_DAC2_IRQHandler	4	static
IMU_Logic.c:72:13:Init_Model_Work	4	static
IMU_Logic.c:84:13:GPIO_INit	32	static
IMU_Logic.c:99:13:Indication_work_state	16	static
IMU_Logic.c:106:13:Init_Timer_StateWork	8	static
IMU_Logic.c:118:13:Init_Sync_Tim	8	static
IMU_Logic.c:129:13:Read_LSM6DS0_Data	16	static
IMU_Logic.c:151:13:Read_LIS3MDL_Data	16	static
IMU_Logic.c:167:13:Calibration_Bias	16	static
IMU_Logic.c:203:10:Get_Status_Trigger	4	static
IMU_Logic.c:209:6:Reset_Trigger	4	static
IMU_Logic.c:216:6:IMU_Init_Sync	8	static
IMU_Logic.c:248:6:Data_Get_Sync	8	static
IMU_Logic.c:262:13:RS485_IDLE	16	static
IMU_Logic.c:268:13:RS485_Connect	16	static
IMU_Logic.c:282:13:RS485_Disconnect	16	static
IMU_Logic.c:295:13:Get_Accel_Data	24	static
IMU_Logic.c:302:13:Get_Gyro_Data	24	static
IMU_Logic.c:309:13:Get_Magn_Data	24	static
IMU_Logic.c:338:6:RS485_Command_Update_Async	32	static
