ADC_regular.c:15:6:ADC_init_RegChannels	8	static
ADC_regular.c:54:6:ADC_Select_CH14	8	static
ADC_regular.c:70:6:ADC_Select_CH13	8	static
ADC_regular.c:88:6:ADC_Regul_Read	8	static
ADC_regular.c:104:6:ADC_Regul_GetValue	16	static
