core_cm4.h:1688:22:__NVIC_EnableIRQ	16	static
core_cm4.h:1816:22:__NVIC_SetPriority	16	static
Timers.c:78:6:TIM1_TRG_COM_TIM11_IRQHandler	8	static
Timers.c:84:6:TIM1_UP_TIM10_IRQHandler	8	static
Timers.c:141:23:Hundler_Select_Settings_Tim_main	24	static
Timers.c:232:6:Init_Timer_For_Sync	16	static
Timers.c:302:13:Init_Tim1_Sync	16	static
Timers.c:307:13:Init_Tim2_Sync	32	static
Timers.c:319:13:Init_Tim3_Sync	32	static
Timers.c:333:13:Init_Tim11_Sync	32	static
Timers.c:345:13:Init_Tim10_Sync	32	static
Timers.c:434:8:Set_CallBack	16	static
