Push_Pull.c:55:6:Update_sync	4	static
Push_Pull.c:62:6:Update_work	8	static
Push_Pull.c:69:6:Interrupt_Prot_Current	8	static
Push_Pull.c:80:6:Can_Hundler_Reciever	16	static
Push_Pull.c:87:13:update_status_Charge	8	static
Push_Pull.c:110:13:Settings_Analog_Input	8	static
Push_Pull.c:127:13:App_GetSettings_flash	80	static
Push_Pull.c:135:6:Restore_Pid_Settings	88	static
Push_Pull.c:174:13:Set_ToFlash_Data	80	static
Push_Pull.c:185:13:check_work_Push_pull	8	static
Push_Pull.c:301:13:Init_Logic	8	static
Push_Pull.c:365:6:Main_Init	32	static
Push_Pull.c:446:9:Get_Status_Trigger	4	static
Push_Pull.c:453:6:Reset_Trigger	4	static
Push_Pull.c:459:13:Main_Push_pull_Regulator	32	static
Push_Pull.c:522:13:Fast_Loop_push_pull_Sync	8	static
Push_Pull.c:535:13:Middle_Loop_push_pull_Sync	8	static
Push_Pull.c:550:6:Push_Pull_Sync	8	static
Push_Pull.c:560:13:Set_Enable_DRV	16	static
Push_Pull.c:575:13:update_GPIO_OUT	8	static
Push_Pull.c:593:13:Read_Adc_Sense	16	static
Push_Pull.c:622:13:Read_Adc_Sense_2	8	static
Push_Pull.c:638:13:update_hrtim	8	static
Push_Pull.c:649:13:update_Indicate_External	16	static
Push_Pull.c:773:13:Can_Packet_1	40	static
Push_Pull.c:788:13:Can_Packet_2	32	static
Push_Pull.c:802:13:indicate_extern	16	static
Push_Pull.c:863:6:function_Set_Connect	16	static
Push_Pull.c:868:6:function_Get_Board	80	static
Push_Pull.c:883:6:function_Get_main_data	80	static
Push_Pull.c:905:6:function_Get_setting_peripheral_board	128	static
Push_Pull.c:943:6:function_Set_Mode_Work	16	static
Push_Pull.c:950:6:function_Set_DAC	16	static
Push_Pull.c:957:6:function_Set_PWM	16	static
Push_Pull.c:964:6:function_Set_Gpio	16	static
Push_Pull.c:969:6:function_Set_setting_peripheral_board	104	static
Push_Pull.c:1041:6:function_Set_Default_peripheral_board	16	static
Push_Pull.c:1046:6:function_Set_cmd_flash	16	static
Push_Pull.c:1077:6:RS485_Command_Update_Async	48	static
