core_cm4.h:1688:22:__NVIC_EnableIRQ	16	static
Logic.c:29:6:TIM6_DAC_IRQHandler	4	static
Logic.c:38:6:TIM7_IRQHandler	4	static
Logic.c:47:13:Init_Model_Work	4	static
Logic.c:61:13:GPIO_INit	40	static
Logic.c:106:13:Init_Timer_StateWork	8	static
Logic.c:118:13:Init_Sync_Tim	8	static
Logic.c:144:6:Init_Logic_LoRa	8	static
Logic.c:153:9:Get_Status_Trigger	4	static
Logic.c:158:6:Reset_Trigger	4	static
Logic.c:163:6:Async_Get_LoRa_Data	4	static
Logic.c:169:6:Indicate_Led_MCU	8	static
