core_cm4.h:1688:22:__NVIC_EnableIRQ	16	static
core_cm4.h:1816:22:__NVIC_SetPriority	16	static
Timers.c:63:6:TIM1_BRK_TIM15_IRQHandler	8	static
Timers.c:95:6:TIM1_TRG_COM_TIM17_IRQHandler	8	static
Timers.c:102:6:TIM6_DAC1_IRQHandler	8	static
Timers.c:111:6:TIM7_DAC2_IRQHandler	8	static
Timers.c:121:23:Hundler_Select_Settings_Tim_main	24	static
Timers.c:161:6:Init_Timer_For_Sync	16	static
Timers.c:218:13:Init_Tim1_Sync	16	static
Timers.c:223:13:Init_Tim2_Sync	32	static
Timers.c:234:13:Init_Tim3_Sync	32	static
Timers.c:245:13:Init_Tim15_Sync	32	static
Timers.c:256:13:Init_Tim16_Sync	32	static
Timers.c:267:13:Init_Tim17_Sync	32	static
Timers.c:280:6:Init_Tim6_Sync	32	static
Timers.c:295:6:Init_Tim7_Sync	32	static
Timers.c:307:6:Init_Tim7_One_ms	8	static
Timers.c:319:8:Set_CallBack	16	static
