Flash_Setting.c:181:9:FlashSettings_isValid	32	static
Flash_Setting.c:193:9:getCrcSum	32	static
Flash_Setting.c:218:17:GetSector	24	static
Flash_Setting.c:322:6:WriteBoardID	32	static
Flash_Setting.c:379:6:Erace_Sector	32	static
Flash_Setting.c:401:10:ReadBoardID	24	static
Flash_Setting.c:411:6:FlashSettings_write	64	dynamic
Flash_Setting.c:483:6:FlashSettings_read	48	dynamic
