CAN_Lib.c:34:6:HAL_CAN_RxFifo0MsgPendingCallback	16	static
CAN_Lib.c:46:13:Init_GPIO_CAN	40	static
CAN_Lib.c:73:6:CAN_Init	24	static
CAN_Lib.c:103:6:CAN_INit_HW	16	static
CAN_Lib.c:110:6:Set_CAN_Rx_Config	12	static
CAN_Lib.c:128:6:CAN_Set_Filter	64	static
CAN_Lib.c:155:6:CAN_Transmit_Packet	16	static
CAN_Lib.c:160:6:Set_RxPacket_CallBack	16	static
CAN_Lib.c:165:6:CAN_Transmit_self_Test	48	static
